{
  "albums": {
    "href": "https://api.spotify.com/v1/search?query=Bob&type=album&market=ES&offset=20&limit=10",
    "items": [
      {
        "album_type": "album",
        "artists": [
          {
            "external_urls": {
              "spotify": "https://open.spotify.com/artist/74ASZWbe4lXaubB36ztrGX"
            },
            "href": "https://api.spotify.com/v1/artists/74ASZWbe4lXaubB36ztrGX",
            "id": "74ASZWbe4lXaubB36ztrGX",
            "name": "Bob Dylan",
            "type": "artist",
            "uri": "spotify:artist:74ASZWbe4lXaubB36ztrGX"
          }
        ],
        "available_markets": [
          "AD",
          "AR",
          "AT",
          "AU",
          "BE",
          "BG",
          "BO",
          "BR",
          "CA",
          "CH",
          "CL",
          "CO",
          "CR",
          "CY",
          "CZ",
          "DE",
          "DK",
          "DO",
          "EC",
          "EE",
          "ES",
          "FI",
          "FR",
          "GB",
          "GR",
          "GT",
          "HK",
          "HN",
          "HU",
          "ID",
          "IE",
          "IS",
          "IT",
          "JP",
          "LI",
          "LT",
          "LU",
          "LV",
          "MC",
          "MT",
          "MX",
          "MY",
          "NI",
          "NL",
          "NO",
          "NZ",
          "PA",
          "PE",
          "PH",
          "PL",
          "PT",
          "PY",
          "SE",
          "SG",
          "SK",
          "SV",
          "TH",
          "TR",
          "TW",
          "US",
          "UY",
          "VN"
        ],
        "external_urls": {
          "spotify": "https://open.spotify.com/album/4NP1rhnsPdYpnyJP0p0k0L"
        },
        "href": "https://api.spotify.com/v1/albums/4NP1rhnsPdYpnyJP0p0k0L",
        "id": "4NP1rhnsPdYpnyJP0p0k0L",
        "images": [
          {
            "height": 639,
            "url": "https://i.scdn.co/image/250662242f34ac54137cd212b92560e8415d0dc7",
            "width": 640
          },
          {
            "height": 300,
            "url": "https://i.scdn.co/image/54e1567901b85fc16169ad22d3c05b53e73e5382",
            "width": 300
          },
          {
            "height": 64,
            "url": "https://i.scdn.co/image/c7721409acedb525565678cc4c464af01ef3669a",
            "width": 64
          }
        ],
        "name": "Blonde On Blonde",
        "type": "album",
        "uri": "spotify:album:4NP1rhnsPdYpnyJP0p0k0L"
      },
      {
        "album_type": "album",
        "artists": [
          {
            "external_urls": {
              "spotify": "https://open.spotify.com/artist/74ASZWbe4lXaubB36ztrGX"
            },
            "href": "https://api.spotify.com/v1/artists/74ASZWbe4lXaubB36ztrGX",
            "id": "74ASZWbe4lXaubB36ztrGX",
            "name": "Bob Dylan",
            "type": "artist",
            "uri": "spotify:artist:74ASZWbe4lXaubB36ztrGX"
          }
        ],
        "available_markets": [
          "AD",
          "AR",
          "AT",
          "AU",
          "BE",
          "BG",
          "BO",
          "BR",
          "CA",
          "CH",
          "CL",
          "CO",
          "CR",
          "CY",
          "CZ",
          "DE",
          "DK",
          "DO",
          "EC",
          "EE",
          "ES",
          "FI",
          "FR",
          "GB",
          "GR",
          "GT",
          "HK",
          "HN",
          "HU",
          "ID",
          "IE",
          "IS",
          "IT",
          "JP",
          "LI",
          "LT",
          "LU",
          "LV",
          "MC",
          "MT",
          "MX",
          "MY",
          "NI",
          "NL",
          "NO",
          "NZ",
          "PA",
          "PE",
          "PH",
          "PL",
          "PT",
          "PY",
          "SE",
          "SG",
          "SK",
          "SV",
          "TH",
          "TR",
          "TW",
          "US",
          "UY",
          "VN"
        ],
        "external_urls": {
          "spotify": "https://open.spotify.com/album/1lPoRKSgZHQAYXxzBsOQ7v"
        },
        "href": "https://api.spotify.com/v1/albums/1lPoRKSgZHQAYXxzBsOQ7v",
        "id": "1lPoRKSgZHQAYXxzBsOQ7v",
        "images": [
          {
            "height": 640,
            "url": "https://i.scdn.co/image/51b0d04cda3de0e5c252fdd4bcc6ff874181ecb9",
            "width": 640
          },
          {
            "height": 300,
            "url": "https://i.scdn.co/image/d4daa0bcd45114a2fdaa03a3d30edae3bb1ceed0",
            "width": 300
          },
          {
            "height": 64,
            "url": "https://i.scdn.co/image/955b1ad91604d07d6cafc990e790d0d4bcb0f47d",
            "width": 64
          }
        ],
        "name": "Bringing It All Back Home",
        "type": "album",
        "uri": "spotify:album:1lPoRKSgZHQAYXxzBsOQ7v"
      },
      {
        "album_type": "album",
        "artists": [
          {
            "external_urls": {
              "spotify": "https://open.spotify.com/artist/74ASZWbe4lXaubB36ztrGX"
            },
            "href": "https://api.spotify.com/v1/artists/74ASZWbe4lXaubB36ztrGX",
            "id": "74ASZWbe4lXaubB36ztrGX",
            "name": "Bob Dylan",
            "type": "artist",
            "uri": "spotify:artist:74ASZWbe4lXaubB36ztrGX"
          }
        ],
        "available_markets": [
          "AD",
          "AR",
          "AT",
          "AU",
          "BE",
          "BG",
          "BO",
          "BR",
          "CA",
          "CH",
          "CL",
          "CO",
          "CR",
          "CY",
          "CZ",
          "DE",
          "DK",
          "DO",
          "EC",
          "EE",
          "ES",
          "FI",
          "FR",
          "GB",
          "GR",
          "GT",
          "HK",
          "HN",
          "HU",
          "ID",
          "IE",
          "IS",
          "IT",
          "JP",
          "LI",
          "LT",
          "LU",
          "LV",
          "MC",
          "MT",
          "MX",
          "MY",
          "NI",
          "NL",
          "NO",
          "NZ",
          "PA",
          "PE",
          "PH",
          "PL",
          "PT",
          "PY",
          "SE",
          "SG",
          "SK",
          "SV",
          "TH",
          "TR",
          "TW",
          "US",
          "UY",
          "VN"
        ],
        "external_urls": {
          "spotify": "https://open.spotify.com/album/6e4qVbSPvTbZtUnpWJ8l4q"
        },
        "href": "https://api.spotify.com/v1/albums/6e4qVbSPvTbZtUnpWJ8l4q",
        "id": "6e4qVbSPvTbZtUnpWJ8l4q",
        "images": [
          {
            "height": 640,
            "url": "https://i.scdn.co/image/e4ba97789b1687397c794085705bc989a5f0b54d",
            "width": 640
          },
          {
            "height": 300,
            "url": "https://i.scdn.co/image/4e08a203fad06bc4ae9d305d4b878c0b313b3064",
            "width": 300
          },
          {
            "height": 64,
            "url": "https://i.scdn.co/image/220956f111cc56c3f7d2fcd37587a6e62e4e438b",
            "width": 64
          }
        ],
        "name": "Trouble No More: The Bootleg Series, Vol. 13 / 1979-1981 (Sampler)",
        "type": "album",
        "uri": "spotify:album:6e4qVbSPvTbZtUnpWJ8l4q"
      },
      {
        "album_type": "album",
        "artists": [
          {
            "external_urls": {
              "spotify": "https://open.spotify.com/artist/2QsynagSdAqZj3U9HgDzjD"
            },
            "href": "https://api.spotify.com/v1/artists/2QsynagSdAqZj3U9HgDzjD",
            "id": "2QsynagSdAqZj3U9HgDzjD",
            "name": "Bob Marley & The Wailers",
            "type": "artist",
            "uri": "spotify:artist:2QsynagSdAqZj3U9HgDzjD"
          }
        ],
        "available_markets": [
          "AD",
          "AR",
          "AT",
          "AU",
          "BE",
          "BG",
          "BO",
          "BR",
          "CA",
          "CH",
          "CL",
          "CO",
          "CR",
          "CY",
          "CZ",
          "DE",
          "DK",
          "DO",
          "EC",
          "EE",
          "ES",
          "FI",
          "FR",
          "GB",
          "GR",
          "GT",
          "HK",
          "HN",
          "HU",
          "ID",
          "IE",
          "IS",
          "IT",
          "JP",
          "LI",
          "LT",
          "LU",
          "LV",
          "MC",
          "MT",
          "MX",
          "MY",
          "NI",
          "NL",
          "NO",
          "NZ",
          "PA",
          "PE",
          "PH",
          "PL",
          "PT",
          "PY",
          "SE",
          "SG",
          "SK",
          "SV",
          "TH",
          "TR",
          "TW",
          "US",
          "UY",
          "VN"
        ],
        "external_urls": {
          "spotify": "https://open.spotify.com/album/2Ay0T13KzFIzmaJAmjDVH9"
        },
        "href": "https://api.spotify.com/v1/albums/2Ay0T13KzFIzmaJAmjDVH9",
        "id": "2Ay0T13KzFIzmaJAmjDVH9",
        "images": [
          {
            "height": 640,
            "url": "https://i.scdn.co/image/aaf592fb5bf9ddd2f3b8411d03bac1e39c3824ea",
            "width": 640
          },
          {
            "height": 300,
            "url": "https://i.scdn.co/image/22de9f0bfd37760c66a77a40ca7b9506c9f57c59",
            "width": 300
          },
          {
            "height": 64,
            "url": "https://i.scdn.co/image/7734aecb3c90aedfac88849b548f08b06308fe94",
            "width": 64
          }
        ],
        "name": "Exodus 40",
        "type": "album",
        "uri": "spotify:album:2Ay0T13KzFIzmaJAmjDVH9"
      },
      {
        "album_type": "album",
        "artists": [
          {
            "external_urls": {
              "spotify": "https://open.spotify.com/artist/2QsynagSdAqZj3U9HgDzjD"
            },
            "href": "https://api.spotify.com/v1/artists/2QsynagSdAqZj3U9HgDzjD",
            "id": "2QsynagSdAqZj3U9HgDzjD",
            "name": "Bob Marley & The Wailers",
            "type": "artist",
            "uri": "spotify:artist:2QsynagSdAqZj3U9HgDzjD"
          }
        ],
        "available_markets": [
          "AD",
          "AR",
          "AT",
          "AU",
          "BE",
          "BG",
          "BO",
          "BR",
          "CA",
          "CH",
          "CL",
          "CO",
          "CR",
          "CY",
          "CZ",
          "DE",
          "DK",
          "DO",
          "EC",
          "EE",
          "ES",
          "FI",
          "FR",
          "GB",
          "GR",
          "GT",
          "HK",
          "HN",
          "HU",
          "ID",
          "IE",
          "IS",
          "IT",
          "JP",
          "LI",
          "LT",
          "LU",
          "LV",
          "MC",
          "MT",
          "MX",
          "MY",
          "NI",
          "NL",
          "NO",
          "NZ",
          "PA",
          "PE",
          "PH",
          "PL",
          "PT",
          "PY",
          "SE",
          "SG",
          "SK",
          "SV",
          "TH",
          "TR",
          "TW",
          "US",
          "UY",
          "VN"
        ],
        "external_urls": {
          "spotify": "https://open.spotify.com/album/4w9UeNiCO8kr4ZBdWPQKln"
        },
        "href": "https://api.spotify.com/v1/albums/4w9UeNiCO8kr4ZBdWPQKln",
        "id": "4w9UeNiCO8kr4ZBdWPQKln",
        "images": [
          {
            "height": 634,
            "url": "https://i.scdn.co/image/aaaae70cb542f2fbd44170c58d86323e33aadb50",
            "width": 640
          },
          {
            "height": 297,
            "url": "https://i.scdn.co/image/d418806719a5daee43da07a4482af71f252af6db",
            "width": 300
          },
          {
            "height": 63,
            "url": "https://i.scdn.co/image/261702a2e3c4fc44c21bbf52d526ef83d36ea93b",
            "width": 64
          }
        ],
        "name": "Catch A Fire (Deluxe Edition)",
        "type": "album",
        "uri": "spotify:album:4w9UeNiCO8kr4ZBdWPQKln"
      },
      {
        "album_type": "album",
        "artists": [
          {
            "external_urls": {
              "spotify": "https://open.spotify.com/artist/2QsynagSdAqZj3U9HgDzjD"
            },
            "href": "https://api.spotify.com/v1/artists/2QsynagSdAqZj3U9HgDzjD",
            "id": "2QsynagSdAqZj3U9HgDzjD",
            "name": "Bob Marley & The Wailers",
            "type": "artist",
            "uri": "spotify:artist:2QsynagSdAqZj3U9HgDzjD"
          }
        ],
        "available_markets": [
          "AD",
          "AR",
          "AT",
          "AU",
          "BE",
          "BG",
          "BO",
          "BR",
          "CA",
          "CH",
          "CL",
          "CO",
          "CR",
          "CY",
          "CZ",
          "DE",
          "DK",
          "DO",
          "EC",
          "EE",
          "ES",
          "FI",
          "FR",
          "GB",
          "GR",
          "GT",
          "HK",
          "HN",
          "HU",
          "ID",
          "IE",
          "IS",
          "IT",
          "JP",
          "LI",
          "LT",
          "LU",
          "LV",
          "MC",
          "MT",
          "MX",
          "MY",
          "NI",
          "NL",
          "NO",
          "NZ",
          "PA",
          "PE",
          "PH",
          "PL",
          "PT",
          "PY",
          "SE",
          "SG",
          "SK",
          "SV",
          "TH",
          "TR",
          "TW",
          "US",
          "UY",
          "VN"
        ],
        "external_urls": {
          "spotify": "https://open.spotify.com/album/60hFvaPPwCP8etmRUqobPr"
        },
        "href": "https://api.spotify.com/v1/albums/60hFvaPPwCP8etmRUqobPr",
        "id": "60hFvaPPwCP8etmRUqobPr",
        "images": [
          {
            "height": 634,
            "url": "https://i.scdn.co/image/881dd678e4eb7bf8e1a575731775b3b701b66e1f",
            "width": 640
          },
          {
            "height": 297,
            "url": "https://i.scdn.co/image/9aa07864eb31a9ddd1df87759b339ac1c8c58d6c",
            "width": 300
          },
          {
            "height": 63,
            "url": "https://i.scdn.co/image/d05f72fd618f1fc6d40566d6071dd612c4bc716e",
            "width": 64
          }
        ],
        "name": "Rastaman Vibration",
        "type": "album",
        "uri": "spotify:album:60hFvaPPwCP8etmRUqobPr"
      },
      {
        "album_type": "album",
        "artists": [
          {
            "external_urls": {
              "spotify": "https://open.spotify.com/artist/2QsynagSdAqZj3U9HgDzjD"
            },
            "href": "https://api.spotify.com/v1/artists/2QsynagSdAqZj3U9HgDzjD",
            "id": "2QsynagSdAqZj3U9HgDzjD",
            "name": "Bob Marley & The Wailers",
            "type": "artist",
            "uri": "spotify:artist:2QsynagSdAqZj3U9HgDzjD"
          }
        ],
        "available_markets": [
          "AD",
          "AR",
          "AT",
          "AU",
          "BE",
          "BG",
          "BO",
          "BR",
          "CA",
          "CH",
          "CL",
          "CO",
          "CR",
          "CY",
          "CZ",
          "DE",
          "DK",
          "DO",
          "EC",
          "EE",
          "ES",
          "FI",
          "FR",
          "GB",
          "GR",
          "GT",
          "HK",
          "HN",
          "HU",
          "ID",
          "IE",
          "IS",
          "IT",
          "JP",
          "LI",
          "LT",
          "LU",
          "LV",
          "MC",
          "MT",
          "MX",
          "MY",
          "NI",
          "NL",
          "NO",
          "NZ",
          "PA",
          "PE",
          "PH",
          "PL",
          "PT",
          "PY",
          "SE",
          "SG",
          "SK",
          "SV",
          "TH",
          "TR",
          "TW",
          "US",
          "UY",
          "VN"
        ],
        "external_urls": {
          "spotify": "https://open.spotify.com/album/1SfFIU49Hh3x07wsdqPCRE"
        },
        "href": "https://api.spotify.com/v1/albums/1SfFIU49Hh3x07wsdqPCRE",
        "id": "1SfFIU49Hh3x07wsdqPCRE",
        "images": [
          {
            "height": 640,
            "url": "https://i.scdn.co/image/44bb9dd8c40894748307bb55b1e4d871726b4578",
            "width": 640
          },
          {
            "height": 300,
            "url": "https://i.scdn.co/image/f25d58e36e47d3451a90eb23f60542a39a815f4d",
            "width": 300
          },
          {
            "height": 64,
            "url": "https://i.scdn.co/image/f86b7fb87342cf1ffc8c962c336729cc59c69ab9",
            "width": 64
          }
        ],
        "name": "Easy Skanking In Boston '78",
        "type": "album",
        "uri": "spotify:album:1SfFIU49Hh3x07wsdqPCRE"
      },
      {
        "album_type": "album",
        "artists": [
          {
            "external_urls": {
              "spotify": "https://open.spotify.com/artist/2QsynagSdAqZj3U9HgDzjD"
            },
            "href": "https://api.spotify.com/v1/artists/2QsynagSdAqZj3U9HgDzjD",
            "id": "2QsynagSdAqZj3U9HgDzjD",
            "name": "Bob Marley & The Wailers",
            "type": "artist",
            "uri": "spotify:artist:2QsynagSdAqZj3U9HgDzjD"
          }
        ],
        "available_markets": [
          "AD",
          "AR",
          "AT",
          "AU",
          "BE",
          "BG",
          "BO",
          "BR",
          "CA",
          "CH",
          "CL",
          "CO",
          "CR",
          "CY",
          "CZ",
          "DE",
          "DK",
          "DO",
          "EC",
          "EE",
          "ES",
          "FI",
          "FR",
          "GB",
          "GR",
          "GT",
          "HK",
          "HN",
          "HU",
          "ID",
          "IE",
          "IS",
          "IT",
          "JP",
          "LI",
          "LT",
          "LU",
          "LV",
          "MC",
          "MT",
          "MX",
          "MY",
          "NI",
          "NL",
          "NO",
          "NZ",
          "PA",
          "PE",
          "PH",
          "PL",
          "PT",
          "PY",
          "SE",
          "SG",
          "SK",
          "SV",
          "TH",
          "TR",
          "TW",
          "US",
          "UY",
          "VN"
        ],
        "external_urls": {
          "spotify": "https://open.spotify.com/album/5d2JEbUZV4hd5GiQrfbSa5"
        },
        "href": "https://api.spotify.com/v1/albums/5d2JEbUZV4hd5GiQrfbSa5",
        "id": "5d2JEbUZV4hd5GiQrfbSa5",
        "images": [
          {
            "height": 640,
            "url": "https://i.scdn.co/image/e0c1fbb890ed1908eee09d2131afcfdaa2b84388",
            "width": 640
          },
          {
            "height": 300,
            "url": "https://i.scdn.co/image/28ffe418ab3580d5bef536cf994bc4102344a20b",
            "width": 300
          },
          {
            "height": 64,
            "url": "https://i.scdn.co/image/ccdf2aed404004030cc6ffbe4c5515376467bc36",
            "width": 64
          }
        ],
        "name": "Kaya - Deluxe Edition",
        "type": "album",
        "uri": "spotify:album:5d2JEbUZV4hd5GiQrfbSa5"
      },
      {
        "album_type": "single",
        "artists": [
          {
            "external_urls": {
              "spotify": "https://open.spotify.com/artist/2QsynagSdAqZj3U9HgDzjD"
            },
            "href": "https://api.spotify.com/v1/artists/2QsynagSdAqZj3U9HgDzjD",
            "id": "2QsynagSdAqZj3U9HgDzjD",
            "name": "Bob Marley & The Wailers",
            "type": "artist",
            "uri": "spotify:artist:2QsynagSdAqZj3U9HgDzjD"
          }
        ],
        "available_markets": [
          "AD",
          "AR",
          "AT",
          "AU",
          "BE",
          "BG",
          "BO",
          "BR",
          "CA",
          "CH",
          "CL",
          "CO",
          "CR",
          "CY",
          "CZ",
          "DE",
          "DK",
          "DO",
          "EC",
          "EE",
          "ES",
          "FI",
          "FR",
          "GB",
          "GR",
          "GT",
          "HK",
          "HN",
          "HU",
          "ID",
          "IE",
          "IS",
          "IT",
          "JP",
          "LI",
          "LT",
          "LU",
          "LV",
          "MC",
          "MT",
          "MX",
          "MY",
          "NI",
          "NL",
          "NO",
          "NZ",
          "PA",
          "PE",
          "PH",
          "PL",
          "PT",
          "PY",
          "SE",
          "SG",
          "SK",
          "SV",
          "TH",
          "TR",
          "TW",
          "US",
          "UY",
          "VN"
        ],
        "external_urls": {
          "spotify": "https://open.spotify.com/album/2vivonRnTYYyd9LdsrYKoA"
        },
        "href": "https://api.spotify.com/v1/albums/2vivonRnTYYyd9LdsrYKoA",
        "id": "2vivonRnTYYyd9LdsrYKoA",
        "images": [
          {
            "height": 640,
            "url": "https://i.scdn.co/image/3e2a5c8150c6d4dd1b40f21a27bab2f51140d1fa",
            "width": 640
          },
          {
            "height": 300,
            "url": "https://i.scdn.co/image/a33b15f45360cf9e3969350193bce647c4e7d68a",
            "width": 300
          },
          {
            "height": 64,
            "url": "https://i.scdn.co/image/eb7a60d2a8a29f0d4344292f4abe10f041d6ff2b",
            "width": 64
          }
        ],
        "name": "Is This Love (Montmartre Remix)",
        "type": "album",
        "uri": "spotify:album:2vivonRnTYYyd9LdsrYKoA"
      },
      {
        "album_type": "album",
        "artists": [
          {
            "external_urls": {
              "spotify": "https://open.spotify.com/artist/2QsynagSdAqZj3U9HgDzjD"
            },
            "href": "https://api.spotify.com/v1/artists/2QsynagSdAqZj3U9HgDzjD",
            "id": "2QsynagSdAqZj3U9HgDzjD",
            "name": "Bob Marley & The Wailers",
            "type": "artist",
            "uri": "spotify:artist:2QsynagSdAqZj3U9HgDzjD"
          }
        ],
        "available_markets": [
          "AD",
          "AR",
          "AT",
          "AU",
          "BE",
          "BG",
          "BO",
          "BR",
          "CA",
          "CH",
          "CL",
          "CO",
          "CR",
          "CY",
          "CZ",
          "DE",
          "DK",
          "DO",
          "EC",
          "EE",
          "ES",
          "FI",
          "FR",
          "GB",
          "GR",
          "GT",
          "HK",
          "HN",
          "HU",
          "ID",
          "IE",
          "IS",
          "IT",
          "JP",
          "LI",
          "LT",
          "LU",
          "LV",
          "MC",
          "MT",
          "MX",
          "MY",
          "NI",
          "NL",
          "NO",
          "NZ",
          "PA",
          "PE",
          "PH",
          "PL",
          "PT",
          "PY",
          "SE",
          "SG",
          "SK",
          "SV",
          "TH",
          "TR",
          "TW",
          "US",
          "UY",
          "VN"
        ],
        "external_urls": {
          "spotify": "https://open.spotify.com/album/3P9TIaf3gZfBhIIUpAqbBD"
        },
        "href": "https://api.spotify.com/v1/albums/3P9TIaf3gZfBhIIUpAqbBD",
        "id": "3P9TIaf3gZfBhIIUpAqbBD",
        "images": [
          {
            "height": 640,
            "url": "https://i.scdn.co/image/c810edae4eccafd84aa73244b6bcd30f1c8dfa6f",
            "width": 638
          },
          {
            "height": 300,
            "url": "https://i.scdn.co/image/686d882dd805b545f8e7e3398cbcf3e2a0c384c8",
            "width": 299
          },
          {
            "height": 64,
            "url": "https://i.scdn.co/image/3b10962a609927284956ab35d3107a5f01cad16e",
            "width": 64
          }
        ],
        "name": "Chant Down Babylon",
        "type": "album",
        "uri": "spotify:album:3P9TIaf3gZfBhIIUpAqbBD"
      }
    ],
    "limit": 10,
    "next": "https://api.spotify.com/v1/search?query=Bob&type=album&market=ES&offset=30&limit=10",
    "offset": 20,
    "previous": "https://api.spotify.com/v1/search?query=Bob&type=album&market=ES&offset=10&limit=10",
    "total": 8499
  }
}